<?xml version="1.0" encoding="UTF-8" standalone="no"?>
<!-- Created with Inkscape (http://www.inkscape.org/) -->

<svg
   xmlns:dc="http://purl.org/dc/elements/1.1/"
   xmlns:cc="http://creativecommons.org/ns#"
   xmlns:rdf="http://www.w3.org/1999/02/22-rdf-syntax-ns#"
   xmlns:svg="http://www.w3.org/2000/svg"
   xmlns="http://www.w3.org/2000/svg"
   xmlns:sodipodi="http://sodipodi.sourceforge.net/DTD/sodipodi-0.dtd"
   xmlns:inkscape="http://www.inkscape.org/namespaces/inkscape"
   width="512"
   height="512"
   id="svg2"
   version="1.1"
   inkscape:version="0.48.4 r9939"
   sodipodi:docname="Guacamole.svg">
  <defs
     id="defs4" />
  <sodipodi:namedview
     id="base"
     pagecolor="#ffffff"
     bordercolor="#666666"
     borderopacity="1.0"
     inkscape:pageopacity="0.0"
     inkscape:pageshadow="2"
     inkscape:zoom="1.1347656"
     inkscape:cx="154.42973"
     inkscape:cy="278.01891"
     inkscape:document-units="px"
     inkscape:current-layer="layer1"
     showgrid="false"
     inkscape:window-width="1920"
     inkscape:window-height="1017"
     inkscape:window-x="-8"
     inkscape:window-y="-8"
     inkscape:window-maximized="1" />
  <metadata
     id="metadata7">
    <rdf:RDF>
      <cc:Work
         rdf:about="">
        <dc:format>image/svg+xml</dc:format>
        <dc:type
           rdf:resource="http://purl.org/dc/dcmitype/StillImage" />
        <dc:title></dc:title>
      </cc:Work>
    </rdf:RDF>
  </metadata>
  <g
     inkscape:label="Layer 1"
     inkscape:groupmode="layer"
     id="layer1"
     transform="translate(0,-540.36218)">
    <path
       style="fill:#fcc21b;fill-opacity:1;stroke:none"
       d="M 3.524957,377.1704 C -1.0535047,300.1126 8.5753968,239.54275 37.893287,178.01033 68.097808,117.36657 115.25775,36.748301 253.7969,36.13081 c 114.18635,2.839341 185.59131,56.660204 227.35972,163.02926 11.36702,36.53379 39.1057,125.8044 24.67471,189.46644 C 451.25261,454.0871 331.98668,468.47515 265.25301,468.81928 180.37167,468.93338 17.496298,445.79257 3.524957,377.1704 z"
       id="path3388"
       inkscape:connector-curvature="0"
       transform="translate(0,540.36218)"
       sodipodi:nodetypes="ccccccc" />
    <path
       style="fill:none;stroke:#000000;stroke-width:20;stroke-linecap:round;stroke-linejoin:miter;stroke-opacity:1;stroke-miterlimit:4;stroke-dasharray:none"
       d="m 196.51635,339.27711 c 0,0 21.5289,-22.18667 60.80551,-22.91222 37.41779,-0.69121 57.28055,23.79346 57.28055,23.79346"
       id="path4324"
       inkscape:connector-curvature="0"
       transform="translate(0,540.36218)"
       sodipodi:nodetypes="csc" />
    <path
       style="fill:none;stroke:#000000;stroke-width:20;stroke-linecap:round;stroke-linejoin:miter;stroke-opacity:1;stroke-miterlimit:4;stroke-dasharray:none"
       d="m 111.91738,219.42857 108.39243,0"
       id="path4326"
       inkscape:connector-curvature="0"
       transform="translate(0,540.36218)" />
    <path
       style="fill:none;stroke:#000000;stroke-width:20;stroke-linecap:round;stroke-linejoin:miter;stroke-opacity:1;stroke-miterlimit:4;stroke-dasharray:none"
       d="m 291.69019,218.54733 106.62995,0"
       id="path4328"
       inkscape:connector-curvature="0"
       transform="translate(0,540.36218)" />
    <path
       sodipodi:type="arc"
       style="fill:#000100;fill-opacity:1;stroke:none"
       id="path4330"
       sodipodi:cx="195.63512"
       sodipodi:cy="233.5284"
       sodipodi:rx="30.843374"
       sodipodi:ry="22.030981"
       d="m 226.47849,233.5284 a 30.843374,22.030981 0 1 1 -61.68675,0 30.843374,22.030981 0 1 1 61.68675,0 z"
       transform="matrix(1.1000001,0,0,1.08,-17.360413,521.67991)" />
    <path
       transform="matrix(1.1000001,0,0,1.08,160.00619,521.03619)"
       d="m 226.47849,233.5284 a 30.843374,22.030981 0 1 1 -61.68675,0 30.843374,22.030981 0 1 1 61.68675,0 z"
       sodipodi:ry="22.030981"
       sodipodi:rx="30.843374"
       sodipodi:cy="233.5284"
       sodipodi:cx="195.63512"
       id="path4332"
       style="fill:#000100;fill-opacity:1;stroke:none"
       sodipodi:type="arc" />
  </g>
</svg>
