<?xml version="1.0" encoding="UTF-8" standalone="no"?>
<!-- Created with Inkscape (http://www.inkscape.org/) -->

<svg
   xmlns:dc="http://purl.org/dc/elements/1.1/"
   xmlns:cc="http://creativecommons.org/ns#"
   xmlns:rdf="http://www.w3.org/1999/02/22-rdf-syntax-ns#"
   xmlns:svg="http://www.w3.org/2000/svg"
   xmlns="http://www.w3.org/2000/svg"
   xmlns:sodipodi="http://sodipodi.sourceforge.net/DTD/sodipodi-0.dtd"
   xmlns:inkscape="http://www.inkscape.org/namespaces/inkscape"
   width="512"
   height="512"
   id="svg2"
   version="1.1"
   inkscape:version="0.48.4 r9939"
   sodipodi:docname="Hemmeroids.svg">
  <defs
     id="defs4">
    <linearGradient
       id="linearGradient4419">
      <stop
         id="stop4421"
         offset="0"
         style="stop-color:#fcc21b;stop-opacity:1;" />
      <stop
         style="stop-color:#fcc21b;stop-opacity:1;"
         offset="0.5029586"
         id="stop4431" />
      <stop
         id="stop4423"
         offset="1"
         style="stop-color:#60b0c6;stop-opacity:1;" />
    </linearGradient>
  </defs>
  <sodipodi:namedview
     id="base"
     pagecolor="#ffffff"
     bordercolor="#666666"
     borderopacity="1.0"
     inkscape:pageopacity="0.0"
     inkscape:pageshadow="2"
     inkscape:zoom="1.1347656"
     inkscape:cx="142.97362"
     inkscape:cy="205.33867"
     inkscape:document-units="px"
     inkscape:current-layer="layer1"
     showgrid="false"
     inkscape:window-width="1920"
     inkscape:window-height="1017"
     inkscape:window-x="-8"
     inkscape:window-y="-8"
     inkscape:window-maximized="1" />
  <metadata
     id="metadata7">
    <rdf:RDF>
      <cc:Work
         rdf:about="">
        <dc:format>image/svg+xml</dc:format>
        <dc:type
           rdf:resource="http://purl.org/dc/dcmitype/StillImage" />
        <dc:title></dc:title>
      </cc:Work>
    </rdf:RDF>
  </metadata>
  <g
     inkscape:label="Layer 1"
     inkscape:groupmode="layer"
     id="layer1"
     transform="translate(0,-540.36218)">
    <path
       transform="translate(170.07917,541.24342)"
       d="m 234.40964,177.5697 a 63.889847,68.296036 0 1 1 -127.7797,0 63.889847,68.296036 0 1 1 127.7797,0 z"
       sodipodi:ry="68.296036"
       sodipodi:rx="63.889847"
       sodipodi:cy="177.5697"
       sodipodi:cx="170.51979"
       id="path4443"
       style="fill:none;fill-opacity:1;stroke:none"
       sodipodi:type="arc" />
    <path
       style="fill:none;stroke:#000000;stroke-width:20;stroke-linecap:round;stroke-linejoin:miter;stroke-opacity:1;stroke-miterlimit:4;stroke-dasharray:none"
       d="m 129.54217,218.54733 c 0,0 31.98526,11.73902 56.39931,-0.88124 24.0208,-12.41698 33.48709,-34.36833 33.48709,-34.36833"
       id="path4468"
       inkscape:connector-curvature="0"
       transform="translate(0,540.36218)"
       sodipodi:nodetypes="csc" />
    <path
       style="fill:none;stroke:#000000;stroke-width:20;stroke-linecap:round;stroke-linejoin:miter;stroke-opacity:1;stroke-miterlimit:4;stroke-dasharray:none"
       d="m 294.33391,184.179 c 0,0 16.04478,23.1972 32.60585,30.84338 29.54343,13.64009 59.04303,5.28743 59.04303,5.28743"
       id="path4470"
       inkscape:connector-curvature="0"
       transform="translate(0,540.36218)"
       sodipodi:nodetypes="csc" />
    <path
       style="fill:#000000;stroke:#000000;stroke-width:1px;stroke-linecap:butt;stroke-linejoin:miter;stroke-opacity:1;fill-opacity:1"
       d="m 112.79862,334.87091 c -6.03198,-11.99093 2.26477,-20.20903 12.33736,-29.0809 12.83819,-11.30779 34.88704,-19.12646 55.51806,-20.26849 25.11078,-1.39001 47.99918,17.97821 73.14286,18.50602 27.30134,0.5731 53.07617,-16.44071 80.19277,-16.74355 24.70112,-0.27586 61.60969,12.9628 66.97418,31.72462 3.03534,10.61584 0.24173,27.96785 -21.14974,21.14974 -21.07702,-6.71789 -14.57163,-23.25796 -51.11187,-32.60585 -24.51535,-6.27162 -49.61244,13.11498 -74.90534,12.33735 -21.08259,-0.64819 -39.1078,-12.01804 -61.68675,-11.45611 -28.838,0.71769 -37.18592,21.80645 -58.16179,32.60585 -10.18886,5.24573 -18.30012,-0.50393 -21.14974,-6.16868 z"
       id="path4472"
       inkscape:connector-curvature="0"
       transform="translate(0,540.36218)"
       sodipodi:nodetypes="ssssssssssss" />
    <path
       style="fill:#855d53;stroke:none;stroke-width:1px;stroke-linecap:butt;stroke-linejoin:miter;stroke-opacity:1;fill-opacity:1"
       d="M 271.42169,491.7315 C 126.45961,496.83423 32.350936,439.37337 29.962134,343.68331 c -1.016372,-40.7136 21.951764,-79.55351 70.499136,-90.76765 -8.434411,-32.07432 -8.643883,-53.56814 4.4062,-74.90533 12.09147,-19.76984 24.95783,-31.00243 59.92427,-35.24957 -4.91781,-35.17957 -3.14365,-47.939167 10.57487,-72.261619 14.69547,-26.054538 39.55647,-60.336794 69.6179,-62.5679862 9.94124,27.7381072 2.3475,45.9469672 17.62478,61.6867472 31.86581,32.830498 84.76855,15.631505 105.74871,39.655768 22.45873,25.71737 20.9297,45.20884 11.45611,71.38038 24.68389,6.08066 30.16786,12.72844 40.53701,24.67469 15.01917,17.30353 12.98046,30.13976 12.33735,52.87436 41.36108,8.1259 63.36636,39.81771 59.04303,86.36144 -7.51865,80.94362 -82.64735,142.32118 -220.30981,147.16696 z"
       id="path4485"
       inkscape:connector-curvature="0"
       transform="translate(0,540.36218)"
       sodipodi:nodetypes="sscscscsscscss" />
    <g
       id="g4491">
      <path
         transform="matrix(1.048951,0,0,1.0258065,-8.165329,529.19034)"
         d="m 238.81584,262.16867 a 63.008606,68.296043 0 1 1 -126.01721,0 63.008606,68.296043 0 1 1 126.01721,0 z"
         sodipodi:ry="68.296043"
         sodipodi:rx="63.008606"
         sodipodi:cy="262.16867"
         sodipodi:cx="175.80724"
         id="path4487"
         style="fill:#ffffff;fill-opacity:1;stroke:none"
         sodipodi:type="arc" />
      <path
         transform="matrix(1.0754717,0,0,1.1836735,-11.239957,493.29681)"
         d="m 195.63511,258.64371 a 23.35284,21.590361 0 1 1 -46.70568,0 23.35284,21.590361 0 1 1 46.70568,0 z"
         sodipodi:ry="21.590361"
         sodipodi:rx="23.35284"
         sodipodi:cy="258.64371"
         sodipodi:cx="172.28227"
         id="path4489"
         style="fill:#000000;fill-opacity:1;stroke:none"
         sodipodi:type="arc" />
    </g>
    <g
       id="g4495"
       transform="translate(176.24785,0.88123924)">
      <path
         sodipodi:type="arc"
         style="fill:#ffffff;fill-opacity:1;stroke:none"
         id="path4497"
         sodipodi:cx="175.80724"
         sodipodi:cy="262.16867"
         sodipodi:rx="63.008606"
         sodipodi:ry="68.296043"
         d="m 238.81584,262.16867 c 0,37.71886 -28.20991,68.29604 -63.0086,68.29604 -34.7987,0 -63.00861,-30.57718 -63.00861,-68.29604 0,-37.71886 28.20991,-68.29604 63.00861,-68.29604 34.79869,0 63.0086,30.57718 63.0086,68.29604 z"
         transform="matrix(1.048951,0,0,1.0258065,-11.690286,531.83406)" />
      <path
         sodipodi:type="arc"
         style="fill:#000000;fill-opacity:1;stroke:none"
         id="path4499"
         sodipodi:cx="172.28227"
         sodipodi:cy="258.64371"
         sodipodi:rx="23.35284"
         sodipodi:ry="21.590361"
         d="m 195.63511,258.64371 c 0,11.92402 -10.45542,21.59036 -23.35284,21.59036 -12.89742,0 -23.35284,-9.66634 -23.35284,-21.59036 0,-11.92403 10.45542,-21.59036 23.35284,-21.59036 12.89742,0 23.35284,9.66633 23.35284,21.59036 z"
         transform="matrix(1.0754717,0,0,1.1836735,-11.239957,493.29681)" />
    </g>
    <path
       style="fill:#ef6d31;fill-opacity:1;stroke:none"
       d="m 259.08434,363.07057 c 40.59802,0.47912 73.18317,-16.61618 95.17383,-7.04992 22.23875,24.90579 -26.77832,88.99 -87.24268,86.36145 -63.25849,-2.75002 -113.54276,-43.36145 -105.74871,-83.71773 16.70358,-19.12118 64.27585,4.01036 97.81756,4.4062 z"
       id="path4501"
       inkscape:connector-curvature="0"
       transform="translate(0,540.36218)"
       sodipodi:nodetypes="scscs" />
  </g>
</svg>
