<?xml version="1.0" encoding="UTF-8" standalone="no"?>
<!-- Created with Inkscape (http://www.inkscape.org/) -->

<svg
   xmlns:dc="http://purl.org/dc/elements/1.1/"
   xmlns:cc="http://creativecommons.org/ns#"
   xmlns:rdf="http://www.w3.org/1999/02/22-rdf-syntax-ns#"
   xmlns:svg="http://www.w3.org/2000/svg"
   xmlns="http://www.w3.org/2000/svg"
   xmlns:sodipodi="http://sodipodi.sourceforge.net/DTD/sodipodi-0.dtd"
   xmlns:inkscape="http://www.inkscape.org/namespaces/inkscape"
   width="512"
   height="512"
   id="svg2"
   version="1.1"
   inkscape:version="0.48.4 r9939"
   sodipodi:docname="Cheer.svg">
  <defs
     id="defs4" />
  <sodipodi:namedview
     id="base"
     pagecolor="#ffffff"
     bordercolor="#666666"
     borderopacity="1.0"
     inkscape:pageopacity="0.0"
     inkscape:pageshadow="2"
     inkscape:zoom="1.1347656"
     inkscape:cx="154.42973"
     inkscape:cy="255.20372"
     inkscape:document-units="px"
     inkscape:current-layer="layer1"
     showgrid="false"
     inkscape:window-width="1920"
     inkscape:window-height="1017"
     inkscape:window-x="-8"
     inkscape:window-y="-8"
     inkscape:window-maximized="1" />
  <metadata
     id="metadata7">
    <rdf:RDF>
      <cc:Work
         rdf:about="">
        <dc:format>image/svg+xml</dc:format>
        <dc:type
           rdf:resource="http://purl.org/dc/dcmitype/StillImage" />
        <dc:title></dc:title>
      </cc:Work>
    </rdf:RDF>
  </metadata>
  <g
     inkscape:label="Layer 1"
     inkscape:groupmode="layer"
     id="layer1"
     transform="translate(0,-540.36218)">
    <path
       style="fill:#fcc21b;fill-opacity:1;stroke:none"
       d="M 3.524957,377.1704 C -1.0535047,300.1126 8.5753968,239.54275 37.893287,178.01033 68.097808,117.36657 115.25775,36.748301 253.7969,36.13081 c 114.18635,2.839341 185.59131,56.660204 227.35972,163.02926 11.36702,36.53379 39.1057,125.8044 24.67471,189.46644 C 451.25261,454.0871 331.98668,468.47515 265.25301,468.81928 180.37167,468.93338 17.496298,445.79257 3.524957,377.1704 z"
       id="path3388"
       inkscape:connector-curvature="0"
       transform="translate(0,540.36218)"
       sodipodi:nodetypes="ccccccc" />
    <path
       style="fill:#ed6c30;stroke:none;stroke-width:1px;stroke-linecap:butt;stroke-linejoin:miter;stroke-opacity:1;fill-opacity:1"
       d="m 258.2031,274.06541 c 32.60341,0.71018 59.05474,46.74868 57.28055,79.31153 -1.55017,28.4512 -11.16527,62.37523 -57.28055,63.44922 -49.33736,1.14903 -59.01289,-37.03167 -59.92427,-66.97418 -0.9798,-32.1902 27.7268,-76.48791 59.92427,-75.78657 z"
       id="path4193"
       inkscape:connector-curvature="0"
       transform="translate(0,540.36218)"
       sodipodi:nodetypes="sssss" />
    <path
       style="fill:#2f2f2f;stroke:none;stroke-width:1px;stroke-linecap:butt;stroke-linejoin:miter;stroke-opacity:1;fill-opacity:1"
       d="m 170.07917,167.43546 c 16.69968,0 31.1104,22.08613 31.72462,38.77452 0.62046,16.85792 -13.10646,36.33333 -29.96214,37.01205 -17.92566,0.7218 -33.42509,-19.07197 -33.48709,-37.01205 -0.0577,-16.69958 15.02493,-38.77452 31.72461,-38.77452 z"
       id="path4195"
       inkscape:connector-curvature="0"
       transform="translate(0,540.36218)"
       sodipodi:nodetypes="sssss" />
    <path
       style="fill:#2f2f2f;stroke:none;stroke-width:1px;stroke-linecap:butt;stroke-linejoin:miter;stroke-opacity:1;fill-opacity:1"
       d="m 346.31698,707.78806 c 16.69968,0 31.1104,22.08613 31.72462,38.77452 0.62046,16.85792 -13.10646,36.33333 -29.96214,37.01205 -17.92566,0.7218 -33.42509,-19.07197 -33.48709,-37.01205 -0.0577,-16.69958 15.02493,-38.77452 31.72461,-38.77452 z"
       id="path4195-7"
       inkscape:connector-curvature="0"
       sodipodi:nodetypes="sssss" />
  </g>
</svg>
